…
# emerging_lasso_rs$.notes[[1]][[".notes"]]

Evaluate

## emerging tech
collect_metrics(emerging_lasso_rs)

## # A tibble: 72 x 8
##     penalty max_tokens .metric  .estimator  mean     n std_err .config       
##       <dbl>      <int> <chr>    <chr>      <dbl> <int>   <dbl> <chr>         
##  1 0.0001          500 accuracy binary     0.695    10  0.0229 Recipe1_Model1
##  2 0.0001          500 roc_auc  binary     0.755    10  0.0220 Recipe1_Model1
##  3 0.000631        500 accuracy binary     0.695    10  0.0229 Recipe1_Model2
##  4 0.000631        500 roc_auc  binary     0.755    10  0.0220 Recipe1_Model2
##  5 0.00398         500 accuracy binary     0.708    10  0.0211 Recipe1_Model3
##  6 0.00398         500 roc_auc  binary     0.767    10  0.0240 Recipe1_Model3
##  7 0.0251          500 accuracy binary     0.714    10  0.0232 Recipe1_Model4
##  8 0.0251          500 roc_auc  binary     0.797    10  0.0269 Recipe1_Model4
##  9 0.158           500 accuracy binary     0.598    10  0.0427 Recipe1_Model5
## 10 0.158           500 roc_auc  binary     0.521    10  0.0117 Recipe1_Model5
## # ... with 62 more rows
…
## # A tibble: 5 x 8
##   penalty max_tokens .metric .estimator  mean     n std_err .config       
##     <dbl>      <int> <chr>   <chr>      <dbl> <int>   <dbl> <chr>         
## 1  0.0251        800 roc_auc binary     0.809    10  0.0266 Recipe2_Model4
## 2  0.0251        500 roc_auc binary     0.797    10  0.0269 Recipe1_Model4
## 3  0.0251       1100 roc_auc binary     0.791    10  0.0286 Recipe3_Model4
## 4  0.0251       1700 roc_auc binary     0.785    10  0.0357 Recipe5_Model4
## 5  0.0251       2000 roc_auc binary     0.783    10  0.0324 Recipe6_Model4

lasso_pred <- collect_predictions(emerging_lasso_rs)

collect_metrics(emerging_lasso_rs_tf)

## # A tibble: 72 x 8
##     penalty max_tokens .metric  .estimator  mean     n std_err .config       
##       <dbl>      <int> <chr>    <chr>      <dbl> <int>   <dbl> <chr>         
##  1 0.0001          500 accuracy binary     0.697    10  0.0279 Recipe1_Model1
##  2 0.0001          500 roc_auc  binary     0.747    10  0.0298 Recipe1_Model1
##  3 0.000631        500 accuracy binary     0.697    10  0.0279 Recipe1_Model2
##  4 0.000631        500 roc_auc  binary     0.747    10  0.0298 Recipe1_Model2
##  5 0.00398         500 accuracy binary     0.716    10  0.0281 Recipe1_Model3
##  6 0.00398         500 roc_auc  binary     0.764    10  0.0315 Recipe1_Model3
##  7 0.0251          500 accuracy binary     0.746    10  0.0351 Recipe1_Model4
##  8 0.0251          500 roc_auc  binary     0.817    10  0.0334 Recipe1_Model4
##  9 0.158           500 accuracy binary     0.547    10  0.0489 Recipe1_Model5
## 10 0.158           500 roc_auc  binary     0.5      10  0      Recipe1_Model5
## # ... with 62 more rows
…
